2598367ms th_a       witness.cpp:88                plugin_initialize    ] witness plugin:  plugin_initialize() begin
2598367ms th_a       witness.cpp:99                plugin_initialize    ] Public Key: BDEX6MRyAjQq8ud7hVNYcfnVPJqcVpscN5So8BhtHuGYqET5GDW5CV
2598368ms th_a       witness.cpp:127               plugin_initialize    ] witness plugin:  plugin_initialize() end
2598368ms th_a       object_database.cpp:115       open                 ] Opening object database from /root/bdex/programs/witness_node/witness_node_data_dir/blockchain ...
2598420ms th_a       object_database.cpp:124       open                 ] Done opening object database.
2598423ms th_a       application.cpp:176           reset_p2p_node       ] Adding seed node 185.233.186.34:4005
2598423ms th_a       application.cpp:176           reset_p2p_node       ] Adding seed node 185.233.186.35:4004
2598423ms th_a       application.cpp:191           reset_p2p_node       ] Configured p2p node to listen on 0.0.0.0:43495
2598424ms th_a       application.cpp:1169          startup_plugins      ] Plugin account_history started
2598424ms th_a       application.cpp:1169          startup_plugins      ] Plugin grouped_orders started
2598424ms th_a       application.cpp:1169          startup_plugins      ] Plugin market_history started
2598424ms th_a       witness.cpp:132               plugin_startup       ] witness plugin:  plugin_startup() begin
2598424ms th_a       witness.cpp:153               plugin_startup       ] No witness configured.
2598424ms th_a       witness.cpp:155               plugin_startup       ] witness plugin:  plugin_startup() end
2598424ms th_a       application.cpp:1169          startup_plugins      ] Plugin witness started
2598424ms th_a       main.cpp:168                  main                 ] Started BdtDex node on a chain with 0 blocks.
2598424ms th_a       main.cpp:169                  main                 ] Chain ID is 82fb145a0b8e52c9fc92b6f2955011babe6257a35bdc1361bb6200d230dfa2cc
